<svg width="18" height="17" viewBox="0 0 18 17" fill="none" xmlns="http://www.w3.org/2000/svg">
<g clip-path="url(#clip0)">
<path fill-rule="evenodd" clip-rule="evenodd" d="M3.67049 3.64255C3.48417 3.64255 3.30549 3.71656 3.17375 3.84831C3.042 3.98005 2.96799 4.15873 2.96799 4.34505V14.18C2.96799 14.3664 3.042 14.545 3.17375 14.6768C3.30549 14.8085 3.48417 14.8825 3.67049 14.8825H13.5055C13.6918 14.8825 13.8705 14.8085 14.0022 14.6768C14.134 14.545 14.208 14.3664 14.208 14.18V10.4287C14.208 10.0407 14.5225 9.7262 14.9105 9.7262C15.2985 9.7262 15.613 10.0407 15.613 10.4287V14.18C15.613 14.739 15.3909 15.275 14.9957 15.6703C14.6005 16.0655 14.0644 16.2875 13.5055 16.2875H3.67049C3.11154 16.2875 2.57549 16.0655 2.18026 15.6703C1.78503 15.275 1.56299 14.739 1.56299 14.18V4.34505C1.56299 3.78611 1.78503 3.25005 2.18026 2.85482C2.57549 2.45959 3.11154 2.23755 3.67049 2.23755H7.42184C7.80982 2.23755 8.12434 2.55207 8.12434 2.94005C8.12434 3.32803 7.80982 3.64255 7.42184 3.64255H3.67049Z" fill="black"/>
<path fill-rule="evenodd" clip-rule="evenodd" d="M13.0086 1.03828C13.2829 0.763934 13.7277 0.763934 14.0021 1.03828L16.8121 3.84828C17.0864 4.12262 17.0864 4.56742 16.8121 4.84176L9.78707 11.8668C9.65533 11.9985 9.47665 12.0725 9.29033 12.0725H6.48033C6.09235 12.0725 5.77783 11.758 5.77783 11.37V8.56002C5.77783 8.3737 5.85185 8.19502 5.98359 8.06328L13.0086 1.03828ZM7.18283 8.851V10.6675H8.99935L15.3218 4.34502L13.5053 2.5285L7.18283 8.851Z" fill="black"/>
</g>
<defs>
<clipPath id="clip0">
<rect width="16.86" height="16.86" fill="white" transform="translate(0.860352 0.130005)"/>
</clipPath>
</defs>
</svg>
