<svg width="28" height="28" viewBox="0 0 28 28" fill="none" xmlns="http://www.w3.org/2000/svg">
<path d="M11.4846 19.1331L8.52051 19.1331L8.52051 16.1689" stroke="white" stroke-width="0.891883" stroke-linecap="round" stroke-linejoin="round"/>
<path d="M12.2939 15.3604L8.52122 19.1331" stroke="white" stroke-width="0.891883" stroke-linecap="round" stroke-linejoin="round"/>
<path d="M16.4554 8.23401L19.4196 8.23401L19.4196 11.1981" stroke="white" stroke-width="0.891883" stroke-linecap="round" stroke-linejoin="round"/>
<path d="M15.6472 12.0066L19.4199 8.23389" stroke="white" stroke-width="0.891883" stroke-linecap="round" stroke-linejoin="round"/>
<path d="M8.52088 11.1981L8.52088 8.23401L11.485 8.23401" stroke="white" stroke-width="0.891883" stroke-linecap="round" stroke-linejoin="round"/>
<path d="M12.2932 12.0066L8.52051 8.23389" stroke="white" stroke-width="0.891883" stroke-linecap="round" stroke-linejoin="round"/>
<path d="M19.4199 16.1689L19.4199 19.1331L16.4558 19.1331" stroke="white" stroke-width="0.891883" stroke-linecap="round" stroke-linejoin="round"/>
<path d="M15.647 15.3604L19.4197 19.1331" stroke="white" stroke-width="0.891883" stroke-linecap="round" stroke-linejoin="round"/>
</svg>
