<svg width="15" height="15" viewBox="0 0 15 15" fill="none" xmlns="http://www.w3.org/2000/svg">
<path fill-rule="evenodd" clip-rule="evenodd" d="M2.98145 7.50058C2.98145 7.18097 3.24054 6.92188 3.56015 6.92188H11.662C11.9816 6.92188 12.2407 7.18097 12.2407 7.50058C12.2407 7.82019 11.9816 8.07928 11.662 8.07928H3.56015C3.24054 8.07928 2.98145 7.82019 2.98145 7.50058Z" fill="#04057E"/>
</svg>
