<svg width="5" height="10" viewBox="0 0 5 10" fill="none" xmlns="http://www.w3.org/2000/svg">
<path fill-rule="evenodd" clip-rule="evenodd" d="M2.85355 9.80474C2.65829 10.0651 2.34171 10.0651 2.14645 9.80474L0.146447 7.13807C-0.0488157 6.87772 -0.0488157 6.45561 0.146447 6.19526C0.341709 5.93491 0.658291 5.93491 0.853553 6.19526L2.5 8.39052L4.14645 6.19526C4.34171 5.93491 4.65829 5.93491 4.85355 6.19526C5.04882 6.45561 5.04882 6.87772 4.85355 7.13807L2.85355 9.80474Z" fill="#04057E"/>
<path fill-rule="evenodd" clip-rule="evenodd" d="M2.5 10C2.22386 10 2 9.70152 2 9.33333L2 0.666666C2 0.298476 2.22386 0 2.5 0C2.77614 0 3 0.298476 3 0.666666L3 9.33333C3 9.70152 2.77614 10 2.5 10Z" fill="#04057E"/>
</svg>
