<svg width="18" height="18" viewBox="0 0 18 18" fill="none" xmlns="http://www.w3.org/2000/svg">
<g clip-path="url(#clip0)">
<path d="M9.00111 0C6.42967 0 4.32764 2.10203 4.32764 4.67348C4.32764 7.24492 6.42967 9.34695 9.00111 9.34695C11.5725 9.34695 13.6746 7.24492 13.6746 4.67348C13.6746 2.10203 11.5725 0 9.00111 0Z" fill="#616577"/>
<path d="M17.0221 13.0823C16.8996 12.7761 16.7364 12.4904 16.5527 12.2251C15.6139 10.8373 14.165 9.91897 12.5323 9.69448C12.3283 9.67409 12.1038 9.71487 11.9405 9.83733C11.0833 10.47 10.0629 10.7965 9.00169 10.7965C7.94044 10.7965 6.92005 10.47 6.0629 9.83733C5.89962 9.71487 5.67513 9.65366 5.47106 9.69448C3.83841 9.91897 2.36903 10.8373 1.45067 12.2251C1.267 12.4904 1.10372 12.7966 0.9813 13.0823C0.920089 13.2047 0.940479 13.3476 1.00169 13.47C1.16497 13.7557 1.36903 14.0415 1.55271 14.2864C1.83841 14.6741 2.14454 15.021 2.49149 15.3476C2.7772 15.6333 3.10372 15.8986 3.43028 16.1639C5.04251 17.368 6.9813 18.0006 8.9813 18.0006C10.9813 18.0006 12.9201 17.368 14.5323 16.1639C14.8588 15.919 15.1854 15.6333 15.4711 15.3476C15.7976 15.021 16.1242 14.6741 16.4099 14.2864C16.614 14.021 16.7977 13.7557 16.9609 13.47C17.0629 13.3476 17.0833 13.2047 17.0221 13.0823Z" fill="#616577"/>
</g>
<defs>
<clipPath id="clip0">
<rect width="18" height="18" fill="white"/>
</clipPath>
</defs>
</svg>
