<svg width="19" height="19" viewBox="0 0 19 19" fill="none" xmlns="http://www.w3.org/2000/svg">
<g clip-path="url(#clip0)">
<path fill-rule="evenodd" clip-rule="evenodd" d="M0.863955 2.03857C0.993475 1.75942 1.27324 1.58081 1.58097 1.58081H17.3897C17.6974 1.58081 17.9772 1.75942 18.1067 2.03857C18.2362 2.31772 18.192 2.64667 17.9933 2.88165L11.8566 10.1382V16.5991C11.8566 16.873 11.7148 17.1275 11.4818 17.2715C11.2487 17.4155 10.9577 17.4286 10.7127 17.3061L7.55097 15.7252C7.28318 15.5913 7.11403 15.3176 7.11403 15.0182V10.1382L0.977421 2.88165C0.778707 2.64667 0.734436 2.31772 0.863955 2.03857ZM3.2846 3.16168L8.50802 9.33837C8.62869 9.48107 8.6949 9.6619 8.6949 9.84878V14.5297L10.2758 15.3202V9.84878C10.2758 9.6619 10.342 9.48107 10.4627 9.33837L15.6861 3.16168H3.2846Z" fill="#616577"/>
</g>
<defs>
<clipPath id="clip0">
<rect width="18.9705" height="18.9705" fill="white"/>
</clipPath>
</defs>
</svg>
