<svg width="17" height="16" viewBox="0 0 17 16" fill="none" xmlns="http://www.w3.org/2000/svg">
<path d="M4.53429 8C4.53429 8.33995 4.25885 8.61539 3.91891 8.61539H2.68814C2.34819 8.61539 2.07275 8.33995 2.07275 8C2.07275 7.66005 2.34819 7.38462 2.68814 7.38462H3.91891C4.25889 7.38462 4.53429 7.66005 4.53429 8ZM4.53429 4.06154C4.53429 3.72159 4.25885 3.44615 3.91891 3.44615H2.68814C2.34819 3.44615 2.07275 3.72159 2.07275 4.06154C2.07275 4.40148 2.34819 4.67692 2.68814 4.67692H3.91891C4.25889 4.67692 4.53429 4.40148 4.53429 4.06154ZM4.53429 11.9385C4.53429 11.5985 4.25885 11.3231 3.91891 11.3231H2.68814C2.34819 11.3231 2.07275 11.5985 2.07275 11.9385C2.07275 12.2784 2.34819 12.5539 2.68814 12.5539H3.91891C4.25889 12.5539 4.53429 12.2784 4.53429 11.9385ZM15.3651 1.96923V14.0308C15.3651 15.1183 14.4834 16 13.3959 16H4.78052C3.69303 16 2.81129 15.1183 2.81129 14.0308V13.0462H3.91898C4.52969 13.0462 5.02667 12.5491 5.02667 11.9385C5.02667 11.3277 4.52969 10.8307 3.91898 10.8307H2.81122V9.10762H3.91891C4.52962 9.10762 5.0266 8.61064 5.0266 7.99993C5.0266 7.38921 4.52962 6.89224 3.91891 6.89224H2.81122V5.16916H3.91891C4.52962 5.16916 5.0266 4.67218 5.0266 4.06147C5.0266 3.45075 4.52962 2.95377 3.91891 2.95377H2.81122V1.96923C2.81122 0.881738 3.69295 0 4.78045 0H13.3958C14.4833 0 15.3651 0.881701 15.3651 1.96923ZM7.55855 5.83729C7.55855 6.8859 8.40875 7.73611 9.45737 7.73611C10.506 7.73611 11.3562 6.8859 11.3562 5.83729C11.3562 4.78867 10.506 3.93843 9.45737 3.93843C8.40879 3.93846 7.55855 4.78867 7.55855 5.83729ZM12.4112 10.479C12.4112 9.31396 11.4665 8.36919 10.3014 8.36919H8.61357C7.44828 8.36919 6.50352 9.31399 6.50352 10.479V11.3231H12.4112V10.479Z" fill="#757E90"/>
</svg>
